﻿{
    "version": "3.0.0-*",

    "compilationOptions": {
        "warningsAsErrors": true,
        "languageVersion": "csharp6"
    },

    "dependencies": {
        "Microsoft.Framework.ConfigurationModel.Json": "1.0.0-beta4-*",
        "Microsoft.Framework.DependencyInjection": "1.0.0-beta4-*",
        "Microsoft.Framework.Logging": "1.0.0-beta4-*",
        "Microsoft.AspNet.Mvc.Common": "6.0.0-beta4-*",
        "Microsoft.AspNet.Mvc.ModelBinding": "6.0.0-beta4-*",
        "Microsoft.AspNet.Mvc.WebApiCompatShim": "6.0.0-beta4-*",
        "Microsoft.AspNet.Mvc.Razor": "6.0.0-beta4-*",
        "Microsoft.AspNet.Mvc.TagHelpers": "6.0.0-beta4-*",
        "Microsoft.AspNet.Mvc": "6.0.0-beta4-*",
        "Microsoft.AspNet.Mvc.Razor.Host": "6.0.0-beta4-*",
        "Microsoft.AspNet.PageExecutionInstrumentation.Interfaces": "1.0.0-beta4-*"
    },

    "frameworks": {
        "aspnet50": {
            "dependencies": {
                "MSharp.Framework": "2.1.0.40"
            }
        }
        /*,
        "aspnetcore50": {
            "dependencies": {
                "System.Runtime": "4.0.20-*"
            }
        }*/
    }
}
